{
  "name": "whatever",
  "sources": {
    "dir": "src",
    "subdirs": true
  },
  "package-specs": {
    "module": "commonjs",
    "in-source": true
  },
  "suffix": ".bs.js",
  "bs-dependencies": [],
  "warnings": {
    "error": "+101"
  },
  "namespace": true,
  "refmt": 3
}
